@startuml

enum VotingChannel {
  E_VOTING
  MAIL
  POLLING_STATION
  OTHER
}

enum VotingRightStatus {
  AVAILABLE
  LOCKED
  USED
  BLOCKED
}

enum Canton {

}

class Operation {
- id : long
- protocolInstanceId : String
- operationDate : Datetime
- shortLabel : String
- longLabel : String
- test: boolean
}

class VotingCard {
- id : long
- voterIndex: Integer
- identificationCodeHash : String
- localPersonId : String
- voterBirthYear : Integer
- voterBirthMonth : Integer
- voterBirthDay : Integer
- votingDatetime : Datetime
}

class CountingCircle {
- id : long
- businessId : String
- name : String
}

class DomainOfInfluence {
- id : long
- businessId: String
- code : String
}
note bottom : Check whether the DOI are required by EUDV.\nA workshop should take place with the business team to clarify.

Operation *-- "1" Canton
VotingCard o-- "1" Operation
VotingCard *-- "0..1" VotingChannel
VotingCard *-- "1" VotingRightStatus
VotingCard "*" o-- "1" CountingCircle
VotingCard "*" o-- "1..*" DomainOfInfluence

@enduml
